{"help": "https://data.gov.sg/api/3/action/help_show?name=datastore_search", "success": true, "result": {"resource_id": "dee5ccce-4dfb-467f-bcb4-dc025b56b977", "fields": [{"type": "int4", "id": "_id"}, {"type": "numeric", "id": "year"}, {"type": "text", "id": "institution_type"}, {"type": "text", "id": "facility_type_a"}, {"type": "numeric", "id": "no_of_facilities"}, {"type": "numeric", "id": "no_beds"}], "records": [{"no_beds": "8289", "no_of_facilities": "14", "institution_type": "Hospital", "year": "2009", "_id": 1, "facility_type_a": "Acute"}, {"no_beds": "2040", "no_of_facilities": "1", "institution_type": "Hospital", "year": "2009", "_id": 2, "facility_type_a": "Psychiatric Hospitals"}, {"no_beds": "877", "no_of_facilities": "6", "institution_type": "Hospital", "year": "2009", "_id": 3, "facility_type_a": "Community Hospitals"}, {"no_beds": "9442", "no_of_facilities": "60", "institution_type": "Residential Long-Term", "year": "2009", "_id": 4, "facility_type_a": "Nursing Homes"}, {"no_beds": "129", "no_of_facilities": "2", "institution_type": "Residential Long-Term", "year": "2009", "_id": 5, "facility_type_a": "Inpatient Hospices"}], "_links": {"start": "/api/action/datastore_search?limit=5&resource_id=dee5ccce-4dfb-467f-bcb4-dc025b56b977", "next": "/api/action/datastore_search?offset=5&limit=5&resource_id=dee5ccce-4dfb-467f-bcb4-dc025b56b977"}, "limit": 5, "total": 65}}