{"help": "https://data.gov.sg/api/3/action/help_show?name=datastore_search", "success": true, "result": {"resource_id": "0e763f43-8cd9-46ef-ae93-673f27446e89", "fields": [{"type": "int4", "id": "_id"}, {"type": "text", "id": "year"}, {"type": "numeric", "id": "infocomm_industry_revenue"}], "records": [{"_id": 1, "infocomm_industry_revenue": "30.64", "year": "2001"}, {"_id": 2, "infocomm_industry_revenue": "32.17", "year": "2002"}, {"_id": 3, "infocomm_industry_revenue": "32.83", "year": "2003"}, {"_id": 4, "infocomm_industry_revenue": "34.77", "year": "2004"}, {"_id": 5, "infocomm_industry_revenue": "37.89", "year": "2005"}], "_links": {"start": "/api/action/datastore_search?limit=5&resource_id=0e763f43-8cd9-46ef-ae93-673f27446e89", "next": "/api/action/datastore_search?offset=5&limit=5&resource_id=0e763f43-8cd9-46ef-ae93-673f27446e89"}, "limit": 5, "total": 17}}