{"help": "https://data.gov.sg/api/3/action/help_show?name=datastore_search", "success": true, "result": {"resource_id": "d6fa745b-4e22-4853-b3e7-53bdbf403c09", "fields": [{"type": "int4", "id": "_id"}, {"type": "text", "id": "date"}, {"type": "numeric", "id": "new_hospital_admissions"}], "records": [{"date": "2022-11-16", "_id": 1, "new_hospital_admissions": "38"}, {"date": "2022-11-17", "_id": 2, "new_hospital_admissions": "51"}, {"date": "2022-11-18", "_id": 3, "new_hospital_admissions": "53"}, {"date": "2022-11-19", "_id": 4, "new_hospital_admissions": "44"}, {"date": "2022-11-20", "_id": 5, "new_hospital_admissions": "34"}], "_links": {"start": "/api/action/datastore_search?limit=5&resource_id=d6fa745b-4e22-4853-b3e7-53bdbf403c09", "next": "/api/action/datastore_search?offset=5&limit=5&resource_id=d6fa745b-4e22-4853-b3e7-53bdbf403c09"}, "limit": 5, "total": 61}}