{"help": "https://data.gov.sg/api/3/action/help_show?name=datastore_search", "success": true, "result": {"resource_id": "98856a60-33cd-482a-9dc4-1ed52e562d5d", "fields": [{"type": "int4", "id": "_id"}, {"type": "numeric", "id": "year_of_balance"}, {"type": "text", "id": "actual_revised_estimated"}, {"type": "text", "id": "category"}, {"type": "text", "id": "item"}, {"type": "numeric", "id": "amount"}, {"type": "numeric", "id": "percent_of_gdp"}], "records": [{"category": "Revenue", "percent_of_gdp": "0.195", "actual_revised_estimated": "Actual", "item": "Operating Revenue", "amount": "29181", "year_of_balance": "1997", "_id": 1}, {"category": "Revenue", "percent_of_gdp": "0.197", "actual_revised_estimated": "Actual", "item": "Operating Revenue", "amount": "27911", "year_of_balance": "1998", "_id": 2}, {"category": "Revenue", "percent_of_gdp": "0.203", "actual_revised_estimated": "Actual", "item": "Operating Revenue", "amount": "30645", "year_of_balance": "1999", "_id": 3}, {"category": "Revenue", "percent_of_gdp": "0.186", "actual_revised_estimated": "Actual", "item": "Operating Revenue", "amount": "31439", "year_of_balance": "2000", "_id": 4}, {"category": "Revenue", "percent_of_gdp": "0.178", "actual_revised_estimated": "Actual", "item": "Operating Revenue", "amount": "28496", "year_of_balance": "2001", "_id": 5}], "_links": {"start": "/api/action/datastore_search?limit=5&resource_id=98856a60-33cd-482a-9dc4-1ed52e562d5d", "next": "/api/action/datastore_search?offset=5&limit=5&resource_id=98856a60-33cd-482a-9dc4-1ed52e562d5d"}, "limit": 5, "total": 200}}