{"help": "https://data.gov.sg/api/3/action/help_show?name=datastore_search", "success": true, "result": {"resource_id": "dec53407-9f97-47b8-ba89-b2070569a09e", "fields": [{"type": "int4", "id": "_id"}, {"type": "numeric", "id": "year"}, {"type": "text", "id": "category"}, {"type": "text", "id": "type"}, {"type": "numeric", "id": "number"}], "records": [{"category": "Cars and Station-wagons", "_id": 1, "type": "Private cars", "number": "401638", "year": "2005"}, {"category": "Cars and Station-wagons", "_id": 2, "type": "Private cars", "number": "421904", "year": "2006"}, {"category": "Cars and Station-wagons", "_id": 3, "type": "Private cars", "number": "451745", "year": "2007"}, {"category": "Cars and Station-wagons", "_id": 4, "type": "Private cars", "number": "476634", "year": "2008"}, {"category": "Cars and Station-wagons", "_id": 5, "type": "Private cars", "number": "497116", "year": "2009"}], "_links": {"start": "/api/action/datastore_search?limit=5&resource_id=dec53407-9f97-47b8-ba89-b2070569a09e", "next": "/api/action/datastore_search?offset=5&limit=5&resource_id=dec53407-9f97-47b8-ba89-b2070569a09e"}, "limit": 5, "total": 328}}