{"help": "https://data.gov.sg/api/3/action/help_show?name=datastore_search", "success": true, "result": {"resource_id": "f9dbfc75-a2dc-42af-9f50-425e4107ae84", "fields": [{"type": "int4", "id": "_id"}, {"type": "numeric", "id": "year"}, {"type": "text", "id": "level_1"}, {"type": "text", "id": "level_2"}, {"type": "text", "id": "value"}], "records": [{"value": "264727", "_id": 1, "level_1": "Total Residents", "level_2": "0  -  4 Years", "year": "1957"}, {"value": "218097", "_id": 2, "level_1": "Total Residents", "level_2": "5  -  9 Years", "year": "1957"}, {"value": "136280", "_id": 3, "level_1": "Total Residents", "level_2": "10 - 14 Years", "year": "1957"}, {"value": "135679", "_id": 4, "level_1": "Total Residents", "level_2": "15 - 19 Years", "year": "1957"}, {"value": "119266", "_id": 5, "level_1": "Total Residents", "level_2": "20 - 24 Years", "year": "1957"}], "_links": {"start": "/api/action/datastore_search?limit=5&resource_id=f9dbfc75-a2dc-42af-9f50-425e4107ae84", "next": "/api/action/datastore_search?offset=5&limit=5&resource_id=f9dbfc75-a2dc-42af-9f50-425e4107ae84"}, "limit": 5, "total": 22680}}