{"help": "https://data.gov.sg/api/3/action/help_show?name=datastore_search", "success": true, "result": {"resource_id": "8b94f596-91fd-4545-bf9e-7a426493b674", "fields": [{"type": "int4", "id": "_id"}, {"type": "text", "id": "month"}, {"type": "numeric", "id": "no_of_rainy_days"}], "records": [{"_id": 1, "no_of_rainy_days": "10", "month": "1982-01"}, {"_id": 2, "no_of_rainy_days": "5", "month": "1982-02"}, {"_id": 3, "no_of_rainy_days": "11", "month": "1982-03"}, {"_id": 4, "no_of_rainy_days": "14", "month": "1982-04"}, {"_id": 5, "no_of_rainy_days": "10", "month": "1982-05"}], "_links": {"start": "/api/action/datastore_search?limit=5&resource_id=8b94f596-91fd-4545-bf9e-7a426493b674", "next": "/api/action/datastore_search?offset=5&limit=5&resource_id=8b94f596-91fd-4545-bf9e-7a426493b674"}, "limit": 5, "total": 492}}