{"help": "https://data.gov.sg/api/3/action/help_show?name=datastore_search", "success": true, "result": {"resource_id": "a41ce851-728e-4d65-8dc5-e0515a01ff31", "fields": [{"type": "int4", "id": "_id"}, {"type": "text", "id": "salesperson_name"}, {"type": "text", "id": "registration_no"}, {"type": "text", "id": "registration_start_date"}, {"type": "text", "id": "registration_end_date"}, {"type": "text", "id": "estate_agent_name"}, {"type": "text", "id": "estate_agent_license_no"}], "records": [{"registration_end_date": "2023-12-31", "estate_agent_license_no": "L3006213G", "salesperson_name": "WANG SOON YEE, LARRY", "registration_no": "P015022G", "registration_start_date": "2011-01-01", "estate_agent_name": "MCDOWELL REALTY NETWORK", "_id": 1}, {"registration_end_date": "2023-12-31", "estate_agent_license_no": "L3006213G", "salesperson_name": "MOHAMED RAHIMATULLAH S/O S M IBRAHIM (MOHD)", "registration_no": "R015018I", "registration_start_date": "2011-01-01", "estate_agent_name": "MCDOWELL REALTY NETWORK", "_id": 2}, {"registration_end_date": "2023-12-31", "estate_agent_license_no": "L3006213G", "salesperson_name": "SALBIAH BINTE RAMLI (SALBIAH)", "registration_no": "R015021I", "registration_start_date": "2011-01-01", "estate_agent_name": "MCDOWELL REALTY NETWORK", "_id": 3}, {"registration_end_date": "2023-12-31", "estate_agent_license_no": "L3006213G", "salesperson_name": "LEE YAT SENG (STEVEN)", "registration_no": "R015024C", "registration_start_date": "2011-01-01", "estate_agent_name": "MCDOWELL REALTY NETWORK", "_id": 4}, {"registration_end_date": "2023-12-31", "estate_agent_license_no": "L3006213G", "salesperson_name": "DAVID SIM YEOW KWEE (DAVID SIM BBM)", "registration_no": "R015027H", "registration_start_date": "2011-01-01", "estate_agent_name": "MCDOWELL REALTY NETWORK", "_id": 5}], "_links": {"start": "/api/action/datastore_search?limit=5&resource_id=a41ce851-728e-4d65-8dc5-e0515a01ff31", "next": "/api/action/datastore_search?offset=5&limit=5&resource_id=a41ce851-728e-4d65-8dc5-e0515a01ff31"}, "limit": 5, "total": 34676}}