{"help": "https://data.gov.sg/api/3/action/help_show?name=datastore_search", "success": true, "result": {"resource_id": "8b40d22f-9dcc-41b3-9bac-dec46c8f6620", "fields": [{"type": "int4", "id": "_id"}, {"type": "numeric", "id": "year"}, {"type": "text", "id": "sector"}, {"type": "numeric", "id": "patents_applied"}, {"type": "numeric", "id": "patents_awarded"}, {"type": "numeric", "id": "patents_owned"}], "records": [{"sector": "Public Sector", "patents_applied": "185", "patents_awarded": "45", "patents_owned": "223", "year": "2000", "_id": 1}, {"sector": "Private Sector", "patents_applied": "717", "patents_awarded": "240", "patents_owned": "1045", "year": "2000", "_id": 2}, {"sector": "Public Sector", "patents_applied": "427", "patents_awarded": "151", "patents_owned": "772", "year": "2005", "_id": 3}, {"sector": "Private Sector", "patents_applied": "1167", "patents_awarded": "726", "patents_owned": "2703", "year": "2005", "_id": 4}, {"sector": "Public Sector", "patents_applied": "475", "patents_awarded": "156", "patents_owned": "965", "year": "2006", "_id": 5}], "_links": {"start": "/api/action/datastore_search?limit=5&resource_id=8b40d22f-9dcc-41b3-9bac-dec46c8f6620", "next": "/api/action/datastore_search?offset=5&limit=5&resource_id=8b40d22f-9dcc-41b3-9bac-dec46c8f6620"}, "limit": 5, "total": 30}}