{"help": "https://data.gov.sg/api/3/action/help_show?name=datastore_search", "success": true, "result": {"resource_id": "d5488c4a-886c-4174-b139-b85718cf162a", "fields": [{"type": "int4", "id": "_id"}, {"type": "numeric", "id": "year"}, {"type": "text", "id": "level_1"}, {"type": "text", "id": "value"}], "records": [{"_id": 1, "level_1": "Doctors Per 10,000 Total Population", "value": "4", "year": "1960"}, {"_id": 2, "level_1": "Dentists Per 10,000 Total Population", "value": "2", "year": "1960"}, {"_id": 3, "level_1": "Nurses Per 10,000 Total Population", "value": "na", "year": "1960"}, {"_id": 4, "level_1": "Doctors Per 10,000 Total Population", "value": "4", "year": "1961"}, {"_id": 5, "level_1": "Dentists Per 10,000 Total Population", "value": "2", "year": "1961"}], "_links": {"start": "/api/action/datastore_search?limit=5&resource_id=d5488c4a-886c-4174-b139-b85718cf162a", "next": "/api/action/datastore_search?offset=5&limit=5&resource_id=d5488c4a-886c-4174-b139-b85718cf162a"}, "limit": 5, "total": 180}}