{"help": "https://data.gov.sg/api/3/action/help_show?name=datastore_search", "success": true, "result": {"resource_id": "552b8662-3cbc-48c0-9fbb-abdc07fb377a", "fields": [{"type": "int4", "id": "_id"}, {"type": "numeric", "id": "year"}, {"type": "text", "id": "type_of_public_transport"}, {"type": "numeric", "id": "average_ridership"}], "records": [{"average_ridership": "740000", "_id": 1, "type_of_public_transport": "MRT", "year": "1995"}, {"average_ridership": "0", "_id": 2, "type_of_public_transport": "LRT", "year": "1995"}, {"average_ridership": "3009000", "_id": 3, "type_of_public_transport": "Bus", "year": "1995"}, {"average_ridership": "0", "_id": 4, "type_of_public_transport": "Taxi", "year": "1995"}, {"average_ridership": "850000", "_id": 5, "type_of_public_transport": "MRT", "year": "1996"}], "_links": {"start": "/api/action/datastore_search?limit=5&resource_id=552b8662-3cbc-48c0-9fbb-abdc07fb377a", "next": "/api/action/datastore_search?offset=5&limit=5&resource_id=552b8662-3cbc-48c0-9fbb-abdc07fb377a"}, "limit": 5, "total": 88}}