{"help": "https://data.gov.sg/api/3/action/help_show?name=datastore_search", "success": true, "result": {"resource_id": "0094016c-a6dd-4801-8608-329775e1dab3", "fields": [{"type": "int4", "id": "_id"}, {"type": "numeric", "id": "year"}, {"type": "text", "id": "age"}, {"type": "text", "id": "sex"}, {"type": "numeric", "id": "enrolment_primary"}], "records": [{"age": "10 YRS", "_id": 1, "sex": "MF", "enrolment_primary": "46582", "year": "1984"}, {"age": "10 YRS", "_id": 2, "sex": "F", "enrolment_primary": "22440", "year": "1984"}, {"age": "11 YRS", "_id": 3, "sex": "MF", "enrolment_primary": "47525", "year": "1984"}, {"age": "11 YRS", "_id": 4, "sex": "F", "enrolment_primary": "22834", "year": "1984"}, {"age": "12 YRS", "_id": 5, "sex": "MF", "enrolment_primary": "14694", "year": "1984"}], "_links": {"start": "/api/action/datastore_search?limit=5&resource_id=0094016c-a6dd-4801-8608-329775e1dab3", "next": "/api/action/datastore_search?offset=5&limit=5&resource_id=0094016c-a6dd-4801-8608-329775e1dab3"}, "limit": 5, "total": 1368}}