{"help": "https://data.gov.sg/api/3/action/help_show?name=datastore_search", "success": true, "result": {"resource_id": "4ad866a7-c43a-4645-87fd-fc961c9de78a", "fields": [{"type": "int4", "id": "_id"}, {"type": "numeric", "id": "year"}, {"type": "numeric", "id": "enrolment"}], "records": [{"_id": 1, "enrolment": "250", "year": "2014"}, {"_id": 2, "enrolment": "964", "year": "2015"}, {"_id": 3, "enrolment": "1679", "year": "2016"}, {"_id": 4, "enrolment": "2381", "year": "2017"}, {"_id": 5, "enrolment": "2832", "year": "2018"}], "_links": {"start": "/api/action/datastore_search?limit=5&resource_id=4ad866a7-c43a-4645-87fd-fc961c9de78a", "next": "/api/action/datastore_search?offset=5&limit=5&resource_id=4ad866a7-c43a-4645-87fd-fc961c9de78a"}, "limit": 5, "total": 9}}