{"help": "https://data.gov.sg/api/3/action/help_show?name=datastore_search", "success": true, "result": {"resource_id": "b80cb643-a732-480d-86b5-e03957bc82aa", "fields": [{"type": "int4", "id": "_id"}, {"type": "numeric", "id": "serial_no"}, {"type": "text", "id": "name"}, {"type": "text", "id": "q1_cleaningstartdate"}, {"type": "text", "id": "q1_cleaningenddate"}, {"type": "text", "id": "remarks_q1"}, {"type": "text", "id": "q2_cleaningstartdate"}, {"type": "text", "id": "q2_cleaningenddate"}, {"type": "text", "id": "remarks_q2"}, {"type": "text", "id": "q3_cleaningstartdate"}, {"type": "text", "id": "q3_cleaningenddate"}, {"type": "text", "id": "remarks_q3"}, {"type": "text", "id": "q4_cleaningstartdate"}, {"type": "text", "id": "q4_cleaningenddate"}, {"type": "text", "id": "remarks_q4"}, {"type": "text", "id": "other_works_startdate"}, {"type": "text", "id": "other_works_enddate"}, {"type": "text", "id": "remarks_other_works"}, {"type": "numeric", "id": "latitude_hc"}, {"type": "numeric", "id": "longitude_hc"}, {"type": "text", "id": "photourl"}, {"type": "text", "id": "address_myenv"}, {"type": "numeric", "id": "no_of_market_stalls"}, {"type": "numeric", "id": "no_of_food_stalls"}, {"type": "text", "id": "description_myenv"}, {"type": "text", "id": "status"}, {"type": "text", "id": "google_3d_view"}, {"type": "text", "id": "google_for_stall"}], "records": [{"serial_no": "1", "remarks_other_works": "nil", "q2_cleaningenddate": "5/6/2023", "address_myenv": "2, Adam Road, Singapore 289876", "remarks_q4": "nil", "remarks_q3": "nil", "remarks_q2": "nil", "remarks_q1": "nil", "other_works_startdate": "NA", "q4_cleaningstartdate": "18/12/2023", "google_for_stall": "nil", "no_of_market_stalls": "0", "longitude_hc": "103.8141632", "q4_cleaningenddate": "19/12/2023", "q1_cleaningstartdate": "6/3/2023", "q1_cleaningenddate": "6/3/2023", "status": "Existing", "other_works_enddate": "NA", "no_of_food_stalls": "32", "q2_cleaningstartdate": "5/6/2023", "description_myenv": "Built in 1974, Adam Food Centre comprises 32 cooked food stalls.  Although small in size, the hawker centre has a huge reputation.  Popular food offered in the centre includes BBQ Seafood, Nasi Lemak, Prawn Noodles etc.", "q3_cleaningenddate": "18/9/2023", "name": "Adam Road Food Centre", "photourl": "http://www.nea.gov.sg/images/default-source/Hawker-Centres-Division/resize_1267437914368.jpg", "latitude_hc": "1.324131966", "google_3d_view": "https://goo.gl/maps/ZMLJeP8STKpDP9so9", "q3_cleaningstartdate": "18/9/2023", "_id": 1}, {"serial_no": "2", "remarks_other_works": "Repairs and Redecoration", "q2_cleaningenddate": "TBC", "address_myenv": "Blk 117, Aljunied Ave 2, Singapore 380117", "remarks_q4": "nil", "remarks_q3": "nil", "remarks_q2": "nil", "remarks_q1": "nil", "other_works_startdate": "1/3/2023", "q4_cleaningstartdate": "18/12/2023", "google_for_stall": "nil", "no_of_market_stalls": "82", "longitude_hc": "103.8870926", "q4_cleaningenddate": "19/12/2023", "q1_cleaningstartdate": "TBC", "q1_cleaningenddate": "TBC", "status": "Existing", "other_works_enddate": "30/6/2023", "no_of_food_stalls": "79", "q2_cleaningstartdate": "TBC", "description_myenv": "Next to Geylang East Swimming Complex and other amenities, the hawker centre caters to the marketing and dining needs of the residents at Geylang East. The centre was built in 1978 and comprises 79 cooked food stalls and 82 market stalls.", "q3_cleaningenddate": "7/9/2023", "name": "Aljunied Ave 2 Blk 117 (Blk 117 Aljunied Market and Food Centre)", "photourl": "http://www.nea.gov.sg/images/default-source/Hawker-Centres-Division/resize_1262154437879.jpg", "latitude_hc": "1.320709944", "google_3d_view": "https://goo.gl/maps/XVjxu6hgpcwt15JC8", "q3_cleaningstartdate": "4/9/2023", "_id": 2}, {"serial_no": "3", "remarks_other_works": "Due to power shutdown, the hawker centre will be closed.", "q2_cleaningenddate": "1/5/2023", "address_myenv": "National Development Building, Annex B, Telok Ayer Street, Singapore 069111", "remarks_q4": "nil", "remarks_q3": "nil", "remarks_q2": "nil", "remarks_q1": "nil", "other_works_startdate": "14/1/2023", "q4_cleaningstartdate": "11/11/2023", "google_for_stall": "nil", "no_of_market_stalls": "1", "longitude_hc": "103.8469849", "q4_cleaningenddate": "13/11/2023", "q1_cleaningstartdate": "14/1/2023", "q1_cleaningenddate": "14/1/2023", "status": "Existing", "other_works_enddate": "15/1/2023", "no_of_food_stalls": "134", "q2_cleaningstartdate": "1/5/2023", "description_myenv": "Built in 1983, the two-storey food centre is located within the central business district.  Housing many well-known stalls, the centre has evolved into a favourite lunch venue for executives working near Shenton Way. Be spoilt by the choice of hawker fare at affordable prices!", "q3_cleaningenddate": "12/8/2023", "name": "Amoy Street Food Centre (Telok Ayer Food Centre)", "photourl": "http://www.nea.gov.sg/images/default-source/Hawker-Centres-Division/resize_1265968760190.jpg", "latitude_hc": "1.279129028", "google_3d_view": "https://goo.gl/maps/RiX319zQXRFeHWPE6", "q3_cleaningstartdate": "12/8/2023", "_id": 3}, {"serial_no": "4", "remarks_other_works": "nil", "q2_cleaningenddate": "7/6/2023", "address_myenv": "Blk 226D, Ang Mo Kio Ave 1, Singapore 564226", "remarks_q4": "nil", "remarks_q3": "nil", "remarks_q2": "nil", "remarks_q1": "nil", "other_works_startdate": "NA", "q4_cleaningstartdate": "18/12/2023", "google_for_stall": "nil", "no_of_market_stalls": "101", "longitude_hc": "103.8391876", "q4_cleaningenddate": "18/12/2023", "q1_cleaningstartdate": "13/3/2023", "q1_cleaningenddate": "13/3/2023", "status": "Existing", "other_works_enddate": "NA", "no_of_food_stalls": "10", "q2_cleaningstartdate": "5/6/2023", "description_myenv": "Located next to a food centre, the hawker centre at Block 226D Ang Mo Kio Ave 1 serves the marketing and dining needs of residents living in the Kebun Baru area. The centre was upgraded in 2010 and consists predominantly of market stalls.", "q3_cleaningenddate": "18/9/2023", "name": "Ang Mo Kio Ave 1 Blk 226D (Kebun Baru Market and Food Centre)", "photourl": "http://www.nea.gov.sg/images/default-source/Hawker-Centres-Division/resize_1262154827180.jpg", "latitude_hc": "1.366950035", "google_3d_view": "https://goo.gl/maps/CAJGbiEU4o46xfbR8", "q3_cleaningstartdate": "18/9/2023", "_id": 4}, {"serial_no": "5", "remarks_other_works": "nil", "q2_cleaningenddate": "9/5/2023", "address_myenv": "Blk 341, Ang Mo Kio Ave 1, Singapore 560341", "remarks_q4": "nil", "remarks_q3": "nil", "remarks_q2": "nil", "remarks_q1": "nil", "other_works_startdate": "NA", "q4_cleaningstartdate": "20/11/2023", "google_for_stall": "nil", "no_of_market_stalls": "86", "longitude_hc": "103.84832", "q4_cleaningenddate": "22/11/2023", "q1_cleaningstartdate": "13/2/2023", "q1_cleaningenddate": "14/2/2023", "status": "Existing", "other_works_enddate": "NA", "no_of_food_stalls": "32", "q2_cleaningstartdate": "8/5/2023", "description_myenv": "Located in the heart of Teck Ghee estate and opposite Bishan Park, the 32 cooked food stalls and 86 market stalls within the hawker centre remain a popular choice among patrons despite the availability of alternative marketing and dining facilities nearby.  Popular local dishes are whipped up daily to satisfy patrons' desires for good food!", "q3_cleaningenddate": "22/8/2023", "name": "Ang Mo Kio Ave 1 Blk 341 (Teck Ghee Court)", "photourl": "http://www.nea.gov.sg/images/default-source/Hawker-Centres-Division/resize_1275538105392.jpg", "latitude_hc": "1.364169955", "google_3d_view": "https://goo.gl/maps/quL2H4mojGZfZsHA6", "q3_cleaningstartdate": "21/8/2023", "_id": 5}], "_links": {"start": "/api/action/datastore_search?limit=5&resource_id=b80cb643-a732-480d-86b5-e03957bc82aa", "next": "/api/action/datastore_search?offset=5&limit=5&resource_id=b80cb643-a732-480d-86b5-e03957bc82aa"}, "limit": 5, "total": 118}}