{"help": "https://data.gov.sg/api/3/action/help_show?name=datastore_search", "success": true, "result": {"resource_id": "f4bbfac9-c3ed-4f71-9b9a-238517b214ef", "fields": [{"type": "int4", "id": "_id"}, {"type": "numeric", "id": "year"}, {"type": "numeric", "id": "total_land_area"}], "records": [{"total_land_area": "581.5", "_id": 1, "year": "1960"}, {"total_land_area": "581.5", "_id": 2, "year": "1961"}, {"total_land_area": "581.5", "_id": 3, "year": "1962"}, {"total_land_area": "581.5", "_id": 4, "year": "1963"}, {"total_land_area": "581.5", "_id": 5, "year": "1964"}], "_links": {"start": "/api/action/datastore_search?limit=5&resource_id=f4bbfac9-c3ed-4f71-9b9a-238517b214ef", "next": "/api/action/datastore_search?offset=5&limit=5&resource_id=f4bbfac9-c3ed-4f71-9b9a-238517b214ef"}, "limit": 5, "total": 61}}