{"help": "https://data.gov.sg/api/3/action/help_show?name=datastore_search", "success": true, "result": {"resource_id": "44e1853b-9e1a-4745-8215-3be544298f85", "fields": [{"type": "int4", "id": "_id"}, {"type": "numeric", "id": "year"}, {"type": "text", "id": "make"}, {"type": "numeric", "id": "number"}], "records": [{"make": "ALEXANDER DENNIS", "_id": 1, "number": "0", "year": "2005"}, {"make": "ANKAI", "_id": 2, "number": "0", "year": "2005"}, {"make": "AVIA", "_id": 3, "number": "0", "year": "2005"}, {"make": "CHERY", "_id": 4, "number": "0", "year": "2005"}, {"make": "CITROEN", "_id": 5, "number": "0", "year": "2005"}], "_links": {"start": "/api/action/datastore_search?limit=5&resource_id=44e1853b-9e1a-4745-8215-3be544298f85", "next": "/api/action/datastore_search?offset=5&limit=5&resource_id=44e1853b-9e1a-4745-8215-3be544298f85"}, "limit": 5, "total": 641}}