{"help": "https://data.gov.sg/api/3/action/help_show?name=datastore_search", "success": true, "result": {"resource_id": "7cf1c94b-7dbf-4c4d-9726-15b273ad8f40", "fields": [{"type": "int4", "id": "_id"}, {"type": "text", "id": "age"}, {"type": "numeric", "id": "non_min_protection"}, {"type": "numeric", "id": "min_protection"}, {"type": "numeric", "id": "min_protection_utd"}], "records": [{"min_protection_utd": "0.0", "min_protection": "0.0", "age": "0-12", "_id": 1, "non_min_protection": "0.0"}, {"min_protection_utd": "0.0", "min_protection": "0.0", "age": "13-19", "_id": 2, "non_min_protection": "0.0"}, {"min_protection_utd": "0.0019", "min_protection": "0.0018", "age": "20-29", "_id": 3, "non_min_protection": "0.0"}, {"min_protection_utd": "0.0", "min_protection": "0.0", "age": "30-39", "_id": 4, "non_min_protection": "0.0"}, {"min_protection_utd": "0.0019", "min_protection": "0.0018", "age": "40-49", "_id": 5, "non_min_protection": "0.0"}], "_links": {"start": "/api/action/datastore_search?limit=5&resource_id=7cf1c94b-7dbf-4c4d-9726-15b273ad8f40", "next": "/api/action/datastore_search?offset=5&limit=5&resource_id=7cf1c94b-7dbf-4c4d-9726-15b273ad8f40"}, "limit": 5, "total": 9}}