{"help": "https://data.gov.sg/api/3/action/help_show?name=datastore_search", "success": true, "result": {"resource_id": "f5542e9d-58d5-48dc-b8c6-4ba692318b41", "fields": [{"type": "int4", "id": "_id"}, {"type": "numeric", "id": "year"}, {"type": "text", "id": "area"}, {"type": "text", "id": "domestic_exports"}], "records": [{"area": "America", "_id": 1, "domestic_exports": "4497", "year": "1980"}, {"area": "Asia", "_id": 2, "domestic_exports": "13692.4", "year": "1980"}, {"area": "Europe", "_id": 3, "domestic_exports": "3901.6", "year": "1980"}, {"area": "Oceania", "_id": 4, "domestic_exports": "2831", "year": "1980"}, {"area": "Africa", "_id": 5, "domestic_exports": "884", "year": "1980"}], "_links": {"start": "/api/action/datastore_search?limit=5&resource_id=f5542e9d-58d5-48dc-b8c6-4ba692318b41", "next": "/api/action/datastore_search?offset=5&limit=5&resource_id=f5542e9d-58d5-48dc-b8c6-4ba692318b41"}, "limit": 5, "total": 210}}