{"help": "https://data.gov.sg/api/3/action/help_show?name=datastore_search", "success": true, "result": {"resource_id": "bb29bad4-e9c6-44ac-8475-373afe50f7bf", "fields": [{"type": "int4", "id": "_id"}, {"type": "text", "id": "name_of_charity"}, {"type": "text", "id": "sector_or_beneficiaries"}], "records": [{"name_of_charity": "<a href=\"https://form.gov.sg/6392d793df1619001297eade?637b8fae5ea47500115baf87==Dreams (Singapore) Limited\">Dreams (Singapore) Limited</a>", "_id": 1, "sector_or_beneficiaries": "<a href=\"https://form.gov.sg/6392d793df1619001297eade?637b8fae5ea47500115baf87==Dreams (Singapore) Limited\">Children and Youth</a>"}, {"name_of_charity": "<a href=\"https://form.gov.sg/6392d793df1619001297eade?637b8fae5ea47500115baf87=365 Cancer Prevention Society\">365 Cancer Prevention Society</a>", "_id": 2, "sector_or_beneficiaries": "<a href=\"https://form.gov.sg/6392d793df1619001297eade?637b8fae5ea47500115baf87=365 Cancer Prevention Society\">Healthcare</a>"}, {"name_of_charity": "<a href=\"https://form.gov.sg/6392d793df1619001297eade?637b8fae5ea47500115baf87=Academy Of Chinese Medicine, Singapore\">Academy Of Chinese Medicine, Singapore</a>", "_id": 3, "sector_or_beneficiaries": "<a href=\"https://form.gov.sg/6392d793df1619001297eade?637b8fae5ea47500115baf87=Academy Of Chinese Medicine, Singapore\">Healthcare</a>"}, {"name_of_charity": "<a href=\"https://form.gov.sg/6392d793df1619001297eade?637b8fae5ea47500115baf87=Action For Aids (Singapore)\">Action For Aids (Singapore)</a>", "_id": 4, "sector_or_beneficiaries": "<a href=\"https://form.gov.sg/6392d793df1619001297eade?637b8fae5ea47500115baf87=Action For Aids (Singapore)\">Healthcare</a>"}, {"name_of_charity": "<a href=\"https://form.gov.sg/637c607e25ead60011a87a02?637b8fae5ea47500115baf87=AIN SOCIETY\">AIN SOCIETY</a>", "_id": 5, "sector_or_beneficiaries": "<a href=\"https://form.gov.sg/637c607e25ead60011a87a02?637b8fae5ea47500115baf87=AIN SOCIETY\">Healthcare</a>"}], "_links": {"start": "/api/action/datastore_search?limit=5&resource_id=bb29bad4-e9c6-44ac-8475-373afe50f7bf", "next": "/api/action/datastore_search?offset=5&limit=5&resource_id=bb29bad4-e9c6-44ac-8475-373afe50f7bf"}, "limit": 5, "total": 173}}