{"help": "https://data.gov.sg/api/3/action/help_show?name=datastore_search", "success": true, "result": {"resource_id": "6d8044d1-ee0c-4a58-9e96-24713212a8a1", "fields": [{"type": "int4", "id": "_id"}, {"type": "numeric", "id": "year"}, {"type": "text", "id": "race"}, {"type": "text", "id": "percentage"}], "records": [{"percentage": "67.7", "_id": 1, "race": "All", "year": "1995"}, {"percentage": "71.3", "_id": 2, "race": "All", "year": "1996"}, {"percentage": "72.9", "_id": 3, "race": "All", "year": "1997"}, {"percentage": "76.3", "_id": 4, "race": "All", "year": "1998"}, {"percentage": "78.2", "_id": 5, "race": "All", "year": "1999"}], "_links": {"start": "/api/action/datastore_search?limit=5&resource_id=6d8044d1-ee0c-4a58-9e96-24713212a8a1", "next": "/api/action/datastore_search?offset=5&limit=5&resource_id=6d8044d1-ee0c-4a58-9e96-24713212a8a1"}, "limit": 5, "total": 135}}