{"help": "https://data.gov.sg/api/3/action/help_show?name=datastore_search", "success": true, "result": {"resource_id": "45e7f290-a25b-468e-9692-6dc14297734d", "fields": [{"type": "int4", "id": "_id"}, {"type": "numeric", "id": "year"}, {"type": "numeric", "id": "energy_consumption_per_dollar_gdp"}], "records": [{"_id": 1, "energy_consumption_per_dollar_gdp": "11.3", "year": "2007"}, {"_id": 2, "energy_consumption_per_dollar_gdp": "15.4", "year": "2008"}, {"_id": 3, "energy_consumption_per_dollar_gdp": "12.2", "year": "2009"}, {"_id": 4, "energy_consumption_per_dollar_gdp": "17.1", "year": "2010"}, {"_id": 5, "energy_consumption_per_dollar_gdp": "17.1", "year": "2011"}], "_links": {"start": "/api/action/datastore_search?limit=5&resource_id=45e7f290-a25b-468e-9692-6dc14297734d", "next": "/api/action/datastore_search?offset=5&limit=5&resource_id=45e7f290-a25b-468e-9692-6dc14297734d"}, "limit": 5, "total": 7}}