{"help": "https://data.gov.sg/api/3/action/help_show?name=datastore_search", "success": true, "result": {"resource_id": "55f8c651-6c18-4017-b1f4-f4c4b65785e2", "fields": [{"type": "int4", "id": "_id"}, {"type": "text", "id": "year"}, {"type": "text", "id": "level_1"}, {"type": "numeric", "id": "value"}], "records": [{"_id": 1, "level_1": "Total Fertility Rate", "value": "5.76", "year": "1960"}, {"_id": 2, "level_1": "Gross Reproduction Rate", "value": "2.78", "year": "1960"}, {"_id": 3, "level_1": "Net Reproduction Rate", "value": "2.54", "year": "1960"}, {"_id": 4, "level_1": "Total Fertility Rate", "value": "5.41", "year": "1961"}, {"_id": 5, "level_1": "Gross Reproduction Rate", "value": "2.63", "year": "1961"}], "_links": {"start": "/api/action/datastore_search?limit=5&resource_id=55f8c651-6c18-4017-b1f4-f4c4b65785e2", "next": "/api/action/datastore_search?offset=5&limit=5&resource_id=55f8c651-6c18-4017-b1f4-f4c4b65785e2"}, "limit": 5, "total": 177}}