{"help": "https://data.gov.sg/api/3/action/help_show?name=datastore_search", "success": true, "result": {"resource_id": "a48068a9-74e3-4748-9ab3-220e2e939419", "fields": [{"type": "int4", "id": "_id"}, {"type": "numeric", "id": "year"}, {"type": "numeric", "id": "rnd_expenditure"}], "records": [{"rnd_expenditure": "571.7", "_id": 1, "year": "1990"}, {"rnd_expenditure": "756.8", "_id": 2, "year": "1991"}, {"rnd_expenditure": "949.54", "_id": 3, "year": "1992"}, {"rnd_expenditure": "997.93", "_id": 4, "year": "1993"}, {"rnd_expenditure": "1174.98", "_id": 5, "year": "1994"}], "_links": {"start": "/api/action/datastore_search?limit=5&resource_id=a48068a9-74e3-4748-9ab3-220e2e939419", "next": "/api/action/datastore_search?offset=5&limit=5&resource_id=a48068a9-74e3-4748-9ab3-220e2e939419"}, "limit": 5, "total": 29}}