{"help": "https://data.gov.sg/api/3/action/help_show?name=datastore_search", "success": true, "result": {"resource_id": "52e93430-01b7-4de0-80df-bc83d0afed40", "fields": [{"type": "int4", "id": "_id"}, {"type": "text", "id": "quarter"}, {"type": "numeric", "id": "index"}], "records": [{"index": "24.3", "quarter": "1990-Q1", "_id": 1}, {"index": "24.4", "quarter": "1990-Q2", "_id": 2}, {"index": "25", "quarter": "1990-Q3", "_id": 3}, {"index": "24.7", "quarter": "1990-Q4", "_id": 4}, {"index": "24.9", "quarter": "1991-Q1", "_id": 5}], "_links": {"start": "/api/action/datastore_search?limit=5&resource_id=52e93430-01b7-4de0-80df-bc83d0afed40", "next": "/api/action/datastore_search?offset=5&limit=5&resource_id=52e93430-01b7-4de0-80df-bc83d0afed40"}, "limit": 5, "total": 131}}