{"help": "https://data.gov.sg/api/3/action/help_show?name=datastore_search", "success": true, "result": {"resource_id": "7918b229-0e79-4d74-b725-e34183a56c01", "fields": [{"type": "int4", "id": "_id"}, {"type": "numeric", "id": "year"}, {"type": "numeric", "id": "waste_disposed_of"}, {"type": "numeric", "id": "waste_recycled"}], "records": [{"waste_recycled": "1.86", "_id": 1, "waste_disposed_of": "2.8", "year": "2000"}, {"waste_recycled": "2.23", "_id": 2, "waste_disposed_of": "2.8", "year": "2001"}, {"waste_recycled": "2.18", "_id": 3, "waste_disposed_of": "2.63", "year": "2002"}, {"waste_recycled": "2.22", "_id": 4, "waste_disposed_of": "2.51", "year": "2003"}, {"waste_recycled": "2.31", "_id": 5, "waste_disposed_of": "2.48", "year": "2004"}], "_links": {"start": "/api/action/datastore_search?limit=5&resource_id=7918b229-0e79-4d74-b725-e34183a56c01", "next": "/api/action/datastore_search?offset=5&limit=5&resource_id=7918b229-0e79-4d74-b725-e34183a56c01"}, "limit": 5, "total": 15}}