{"help": "https://data.gov.sg/api/3/action/help_show?name=datastore_search", "success": true, "result": {"resource_id": "4d83d0be-55ba-46de-8430-2ff708fede5c", "fields": [{"type": "int4", "id": "_id"}, {"type": "numeric", "id": "year"}, {"type": "text", "id": "waste_type"}, {"type": "numeric", "id": "recycling_rate"}], "records": [{"_id": 1, "waste_type": "Construction Debris", "recycling_rate": "61", "year": "2000"}, {"_id": 2, "waste_type": "Used Slag", "recycling_rate": "45", "year": "2000"}, {"_id": 3, "waste_type": "Ferrous Metal", "recycling_rate": "92", "year": "2000"}, {"_id": 4, "waste_type": "Scrap Tyres", "recycling_rate": "54", "year": "2000"}, {"_id": 5, "waste_type": "Non-Ferrous Metal", "recycling_rate": "84", "year": "2000"}], "_links": {"start": "/api/action/datastore_search?limit=5&resource_id=4d83d0be-55ba-46de-8430-2ff708fede5c", "next": "/api/action/datastore_search?offset=5&limit=5&resource_id=4d83d0be-55ba-46de-8430-2ff708fede5c"}, "limit": 5, "total": 224}}