{"help": "https://data.gov.sg/api/3/action/help_show?name=datastore_search", "success": true, "result": {"resource_id": "c3f30388-60f9-4124-b211-72683993a47c", "fields": [{"type": "int4", "id": "_id"}, {"type": "text", "id": "quarter"}, {"type": "text", "id": "level_1"}, {"type": "numeric", "id": "value"}], "records": [{"quarter": "1995-Q1", "_id": 1, "level_1": "Total Services Sector", "value": "12"}, {"quarter": "1995-Q2", "_id": 2, "level_1": "Total Services Sector", "value": "17"}, {"quarter": "1995-Q3", "_id": 3, "level_1": "Total Services Sector", "value": "29"}, {"quarter": "1995-Q4", "_id": 4, "level_1": "Total Services Sector", "value": "8"}, {"quarter": "1996-Q1", "_id": 5, "level_1": "Total Services Sector", "value": "1"}], "_links": {"start": "/api/action/datastore_search?limit=5&resource_id=c3f30388-60f9-4124-b211-72683993a47c", "next": "/api/action/datastore_search?offset=5&limit=5&resource_id=c3f30388-60f9-4124-b211-72683993a47c"}, "limit": 5, "total": 100}}