{"help": "https://data.gov.sg/api/3/action/help_show?name=datastore_search", "success": true, "result": {"resource_id": "ba3c89a7-cfc2-4c87-afe3-b688b0f0ad75", "fields": [{"type": "int4", "id": "_id"}, {"type": "numeric", "id": "year"}, {"type": "text", "id": "level_1"}, {"type": "text", "id": "value"}], "records": [{"_id": 1, "level_1": "Acute Hospitals Admissions", "value": "na", "year": "1984"}, {"_id": 2, "level_1": "Psychiatric Hospitals Admissions", "value": "na", "year": "1984"}, {"_id": 3, "level_1": "Community Hospitals Admissions", "value": "na", "year": "1984"}, {"_id": 4, "level_1": "Specialist Outpatient Clinics", "value": "1222817", "year": "1984"}, {"_id": 5, "level_1": "Accident & Emergency Departments", "value": "469522", "year": "1984"}], "_links": {"start": "/api/action/datastore_search?limit=5&resource_id=ba3c89a7-cfc2-4c87-afe3-b688b0f0ad75", "next": "/api/action/datastore_search?offset=5&limit=5&resource_id=ba3c89a7-cfc2-4c87-afe3-b688b0f0ad75"}, "limit": 5, "total": 296}}