{"help": "https://data.gov.sg/api/3/action/help_show?name=datastore_search", "success": true, "result": {"resource_id": "4f5585ca-4382-4dd6-98a5-be37441d4868", "fields": [{"type": "int4", "id": "_id"}, {"type": "text", "id": "year"}, {"type": "text", "id": "level_1"}, {"type": "numeric", "id": "value"}], "records": [{"_id": 1, "level_1": "Total", "value": "24467", "year": "1984"}, {"_id": 2, "level_1": "First Marriages", "value": "22420", "year": "1984"}, {"_id": 3, "level_1": "Remarriages", "value": "2047", "year": "1984"}, {"_id": 4, "level_1": "Total", "value": "23058", "year": "1985"}, {"_id": 5, "level_1": "First Marriages", "value": "21085", "year": "1985"}], "_links": {"start": "/api/action/datastore_search?limit=5&resource_id=4f5585ca-4382-4dd6-98a5-be37441d4868", "next": "/api/action/datastore_search?offset=5&limit=5&resource_id=4f5585ca-4382-4dd6-98a5-be37441d4868"}, "limit": 5, "total": 105}}