{"help": "https://data.gov.sg/api/3/action/help_show?name=datastore_search", "success": true, "result": {"resource_id": "4af42bbf-1ac0-46bf-9318-6efa6aa475a7", "fields": [{"type": "int4", "id": "_id"}, {"type": "numeric", "id": "year"}, {"type": "numeric", "id": "flats_constructed"}], "records": [{"_id": 1, "flats_constructed": "30498", "year": "1977"}, {"_id": 2, "flats_constructed": "29742", "year": "1978"}, {"_id": 3, "flats_constructed": "26709", "year": "1979"}, {"_id": 4, "flats_constructed": "18421", "year": "1980"}, {"_id": 5, "flats_constructed": "15381", "year": "1981"}], "_links": {"start": "/api/action/datastore_search?limit=5&resource_id=4af42bbf-1ac0-46bf-9318-6efa6aa475a7", "next": "/api/action/datastore_search?offset=5&limit=5&resource_id=4af42bbf-1ac0-46bf-9318-6efa6aa475a7"}, "limit": 5, "total": 41}}