{"help": "https://data.gov.sg/api/3/action/help_show?name=datastore_search", "success": true, "result": {"resource_id": "eb8b932c-503c-41e7-b513-114cffbe2338", "fields": [{"type": "int4", "id": "_id"}, {"type": "numeric", "id": "year"}, {"type": "text", "id": "sex"}, {"type": "text", "id": "type_of_course"}, {"type": "text", "id": "no_of_graduates"}], "records": [{"_id": 1, "sex": "Males", "no_of_graduates": "na", "type_of_course": "Education", "year": "1993"}, {"_id": 2, "sex": "Males", "no_of_graduates": "na", "type_of_course": "Applied Arts", "year": "1993"}, {"_id": 3, "sex": "Males", "no_of_graduates": "481", "type_of_course": "Humanities & Social Sciences", "year": "1993"}, {"_id": 4, "sex": "Males", "no_of_graduates": "na", "type_of_course": "Mass Communication", "year": "1993"}, {"_id": 5, "sex": "Males", "no_of_graduates": "295", "type_of_course": "Accountancy", "year": "1993"}], "_links": {"start": "/api/action/datastore_search?limit=5&resource_id=eb8b932c-503c-41e7-b513-114cffbe2338", "next": "/api/action/datastore_search?offset=5&limit=5&resource_id=eb8b932c-503c-41e7-b513-114cffbe2338"}, "limit": 5, "total": 660}}