{"help": "https://data.gov.sg/api/3/action/help_show?name=datastore_search", "success": true, "result": {"resource_id": "e50178d4-12f3-42c9-9735-777086b9e4e3", "fields": [{"type": "int4", "id": "_id"}, {"type": "text", "id": "month"}, {"type": "text", "id": "network_access_technology"}, {"type": "text", "id": "type_of_plan"}, {"type": "numeric", "id": "number_of_subscriptions"}], "records": [{"number_of_subscriptions": "1137000", "network_access_technology": "2G", "type_of_plan": "pre-paid", "_id": 1, "month": "2004-07"}, {"number_of_subscriptions": "2553900", "network_access_technology": "2G", "type_of_plan": "post-paid", "_id": 2, "month": "2004-07"}, {"number_of_subscriptions": "1151300", "network_access_technology": "2G", "type_of_plan": "pre-paid", "_id": 3, "month": "2004-08"}, {"number_of_subscriptions": "2565300", "network_access_technology": "2G", "type_of_plan": "post-paid", "_id": 4, "month": "2004-08"}, {"number_of_subscriptions": "1170900", "network_access_technology": "2G", "type_of_plan": "pre-paid", "_id": 5, "month": "2004-09"}], "_links": {"start": "/api/action/datastore_search?limit=5&resource_id=e50178d4-12f3-42c9-9735-777086b9e4e3", "next": "/api/action/datastore_search?offset=5&limit=5&resource_id=e50178d4-12f3-42c9-9735-777086b9e4e3"}, "limit": 5, "total": 664}}